{
  "@context": {
    "dct": "http://purl.org/dc/terms/",
    "dcat": "http://www.w3.org/ns/dcat#" ,
    "foaf": "http://xmlns.com/foaf/0.1/",
    "ids": "https://w3id.org/idsa/core/",
    "owl": "http://www.w3.org/2002/07/owl#",
    "rdf": "http://www.w3.org/1999/02/22-rdf-syntax-ns#",
    "rdfs": "http://www.w3.org/2000/01/rdf-schema#",
    "schema": "http://schema.org/",
    "vcard": "https://www.w3.org/2006/vcard/ns#",
    "xsd": "http://www.w3.org/2001/XMLSchema#",
    "gax-core": "http://w3id.org/gaia-x/core#",
    "gax-participant": "http://w3id.org/gaia-x/participant#",
    "gax-service": "http://w3id.org/gaia-x/service#",
    "ex": "http://example.org/"
  },
  "@id": "ex:de_NBI_OpenStack_Service",
  "@type": "gax-service:ServiceOffering",
  "gax-service:ServiceTitle": "de.NBI - OpenStack Service",
  "gax-service:Version": "0.1",
  "gax-service:providedBy": {
    "@id": "ex:de_NBI" ,
    "@type": "gax-participant:LegalPerson"
  },
  "dcat:keyword": [
    "VM",
    "virtual machine",
    "Bioinformatics",
    "remote desktop",
    "Kubernetes",
    "k8s",
    "BibiGrid",
    "CWL",
    "SnakeMake",
    "Nextflow"
  ],
  "gax-service:MarketingImage": {
    "@value": "https://bonian.de/gaiax/icon-deNBI-OpenStack-264x480.jpeg",
    "@type": "xsd:anyURI"
  },
  "gax-service:Screenshot": [
    {
      "schema:contentUrl": "https://bonian.de/gaiax/screenshot-denbi.jpeg",
      "rdfs:comment": "deNBI Services"
    },
    {
      "schema:contentUrl": "https://bonian.de/gaiax/screenshot-denbi2.jpeg",
      "rdfs:comment": "deNBI Services"
    }
  ],
  "gax-service:WebAddress": {
    "@value": "https://www.denbi.de/EXAMPLE/OpenStack" ,
    "@type": "xsd:anyURI"
  },
  "gax-service:ProvisionType": "E.g., Hybrid" ,
  "gax-service:ServiceModel": "E.g., IaaS" ,
  "dct:modified": {
    "@value": "2020-11-16T12:00:00+01:00",
    "@type": "xsd:dateTimeStamp"
  },
  "gax-service:ApiType": "REST",
  "dct:description": "OpenStack is a free and open-source cloud operating system launched in 2010, which gives the user fine-grained control of computing resources. Virtual machines, network and storage settings can be managed through a browser-based dashboard.",
  "gax-service:consumes": {
    "@type": "gax-service:ApiDescription",
    "dct:description": "REST"
  },
  "gax-service:produces": {
    "@type": "gax-service:ApiDescription",
    "dct:description": "GUI to configure the resource on deNBI Cloud",
    "gax-service:ContentType": "(web ui)"
  },
  "gax-service:DeploymentDetails": {
    "gax-service:requires": {
      "gax-service:MinCpuCore": 1,
      "gax-service:MinMemory": {
        "@type": "gax-core:Measure",
        "gax-core:value": {
          "@value": "4096.0",
          "@type": "xsd:float"
        },
        "gax-core:unit": "MB"
      },
      "gax-service:UploadBandwidth": {
        "@type": "gax-core:Measure",
        "gax-core:value": {
            "@value": "16.0",
            "@type": "xsd:float"
        },
        "gax-core:unit": "Mbit/s"
      },
      "gax-service:DownloadBandwidth": {
        "@type": "gax-core:Measure",
        "gax-core:value": {
          "@value": "10.0",
          "@type": "xsd:float"
        },
        "gax-core:unit": "Mbit/s"
      }
    },
    "gax-service:Instructions": {
      "gax-service:DeploymentScriptUrl": "https://aceseq.readthedocs.io/en/latest/installation.html#docker-version",
      "gax-service:Repository": {
        "schema:url": "http://bfg-nfs3.ipmb.uni-heidelberg.de",
        "gax-service:Login": "username",
        "gax-service:Password": "password"
      }
    }
  },
  "gax-service:Billing": [
    {
      "@type": "gax-service:PayPerUseModel",
      "gax-service:Price": {
        "@type": "gax-core:Measure",
        "gax-core:value": {
          "@value": "0.0",
          "@type": "xsd:float"
        },
        "gax-core:unit": "EUR"
      }
    },
    {
      "@type": "gax-service:BasicPaymentModel",
      "gax-service:Price": {
        "@type": "gax-core:Measure",
        "gax-core:value": {
          "@value": "0.0",
          "@type": "xsd:float"
        },
        "gax-core:unit": "EUR"
      },
      "gax-service:FrequenceOfPayment": "month"
    }
  ],
  "gax-service:termsAndConditions": {
    "@type": "gax-core:TermsAndConditions",
      "gax-core:content": {
        "@value": "https://www.nbi.de/openstack/tac.pdf",
        "@type": "xsd:anyURI"
      },
    "gax-core:hash": "ba7816bf8f01cfea414140de5dae2223b00361a396177a9cb410ff61f20015ad"
  },
  "gax-service:dataExport": {
    "@type": "gax-core:DataExport",
    "gax-core:requestType": "API",
    "gax-core:accessType": "digital",
    "gax-core:formatType": "application/json"
  },
  "gax-service:endpoint": {
    "@type": "gax-service:Endpoint",
    "EndPointURL": "https://nbi.de/openstack",
    "StandardConformity": "(reference to standard)",
    "EndpointDescription": "https://nbi.de/openstack"
  }
}
